{
    "type": "application",
    "source-directories": [
        "src"
    ],
    "elm-version": "0.19.0",
    "dependencies": {
        "direct": {
            "CurrySoftware/elm-datepicker": "3.0.1",
            "elm/browser": "1.0.1",
            "elm/core": "1.0.2",
            "elm/html": "1.0.0",
            "elm/http": "2.0.0",
            "elm/json": "1.1.3",
            "elm/time": "1.0.0",
            "elm-community/list-extra": "8.1.0",
            "elm-community/maybe-extra": "5.0.0",
            "justinmimbs/date": "3.1.2",
            "rtfeldman/elm-css": "16.0.0"
        },
        "indirect": {
            "Skinney/murmur3": "2.0.8",
            "elm/bytes": "1.0.8",
            "elm/file": "1.0.5",
            "elm/parser": "1.1.0",
            "elm/url": "1.0.0",
            "elm/virtual-dom": "1.0.2",
            "rtfeldman/elm-hex": "1.0.0"
        }
    },
    "test-dependencies": {
        "direct": {
            "elm-explorations/test": "1.2.1"
        },
        "indirect": {
            "elm/random": "1.0.0"
        }
    }
}